$comment
	File created using the following command:
		vcd file binary_counter_display.msim.vcd -direction
$end
$date
	Mon Dec 07 17:39:55 2015
$end
$version
	ModelSim Version 10.1d
$end
$timescale
	1ps
$end
$scope module binary_counter_display_vlg_vec_tst $end
$var reg 1 ! CLK $end
$var reg 1 " CLR $end
$var reg 1 # X $end
$var reg 1 $ Y $end
$var wire 1 % binary_out [6] $end
$var wire 1 & binary_out [5] $end
$var wire 1 ' binary_out [4] $end
$var wire 1 ( binary_out [3] $end
$var wire 1 ) binary_out [2] $end
$var wire 1 * binary_out [1] $end
$var wire 1 + binary_out [0] $end
$var wire 1 , binary_ten_out [6] $end
$var wire 1 - binary_ten_out [5] $end
$var wire 1 . binary_ten_out [4] $end
$var wire 1 / binary_ten_out [3] $end
$var wire 1 0 binary_ten_out [2] $end
$var wire 1 1 binary_ten_out [1] $end
$var wire 1 2 binary_ten_out [0] $end
$var wire 1 3 sampler $end
$scope module i1 $end
$var wire 1 4 gnd $end
$var wire 1 5 vcc $end
$var wire 1 6 unknown $end
$var tri1 1 7 devclrn $end
$var tri1 1 8 devpor $end
$var tri1 1 9 devoe $end
$var wire 1 : binary_out[0]~output_o $end
$var wire 1 ; binary_out[1]~output_o $end
$var wire 1 < binary_out[2]~output_o $end
$var wire 1 = binary_out[3]~output_o $end
$var wire 1 > binary_out[4]~output_o $end
$var wire 1 ? binary_out[5]~output_o $end
$var wire 1 @ binary_out[6]~output_o $end
$var wire 1 A binary_ten_out[0]~output_o $end
$var wire 1 B binary_ten_out[1]~output_o $end
$var wire 1 C binary_ten_out[2]~output_o $end
$var wire 1 D binary_ten_out[3]~output_o $end
$var wire 1 E binary_ten_out[4]~output_o $end
$var wire 1 F binary_ten_out[5]~output_o $end
$var wire 1 G binary_ten_out[6]~output_o $end
$var wire 1 H CLK~input_o $end
$var wire 1 I U0|Add0~0_combout $end
$var wire 1 J U1|Mux5~1_combout $end
$var wire 1 K X~input_o $end
$var wire 1 L U0|tmpten~0_combout $end
$var wire 1 M U0|tmpten~1_combout $end
$var wire 1 N U0|tmp~7_combout $end
$var wire 1 O U0|tmpten~2_combout $end
$var wire 1 P CLR~input_o $end
$var wire 1 Q U0|tmpten~3_combout $end
$var wire 1 R Y~input_o $end
$var wire 1 S U0|tmpten~5_combout $end
$var wire 1 T U0|lowest~0_combout $end
$var wire 1 U U0|count[31]~0_combout $end
$var wire 1 V U0|tmpten[3]~4_combout $end
$var wire 1 W U0|tmpten~6_combout $end
$var wire 1 X U0|tmpten~7_combout $end
$var wire 1 Y U0|highest~0_combout $end
$var wire 1 Z U0|process_0~0_combout $end
$var wire 1 [ U0|types~0_combout $end
$var wire 1 \ U0|types~q $end
$var wire 1 ] U0|tmp~3_combout $end
$var wire 1 ^ U0|tmp~4_combout $end
$var wire 1 _ U0|tmp[3]~2_combout $end
$var wire 1 ` U0|tmp~5_combout $end
$var wire 1 a U0|tmp~6_combout $end
$var wire 1 b U0|Equal0~0_combout $end
$var wire 1 c U0|tmp~1_combout $end
$var wire 1 d U0|Equal1~0_combout $end
$var wire 1 e U0|count[31]~1_combout $end
$var wire 1 f U0|Add0~95_combout $end
$var wire 1 g U0|count[31]~2_combout $end
$var wire 1 h U0|count[31]~3_combout $end
$var wire 1 i U0|Add0~1 $end
$var wire 1 j U0|Add0~2_combout $end
$var wire 1 k U0|Add0~48_combout $end
$var wire 1 l U0|Add0~3 $end
$var wire 1 m U0|Add0~4_combout $end
$var wire 1 n U0|Add0~49_combout $end
$var wire 1 o U0|Add0~5 $end
$var wire 1 p U0|Add0~6_combout $end
$var wire 1 q U0|Add0~46_combout $end
$var wire 1 r U0|Add0~7 $end
$var wire 1 s U0|Add0~8_combout $end
$var wire 1 t U0|Add0~47_combout $end
$var wire 1 u U0|Add0~9 $end
$var wire 1 v U0|Add0~10_combout $end
$var wire 1 w U0|Add0~50_combout $end
$var wire 1 x U0|Add0~11 $end
$var wire 1 y U0|Add0~12_combout $end
$var wire 1 z U0|Add0~51_combout $end
$var wire 1 { U0|Add0~13 $end
$var wire 1 | U0|Add0~14_combout $end
$var wire 1 } U0|Add0~52_combout $end
$var wire 1 ~ U0|Add0~15 $end
$var wire 1 !! U0|Add0~16_combout $end
$var wire 1 "! U0|Add0~53_combout $end
$var wire 1 #! U0|Add0~17 $end
$var wire 1 $! U0|Add0~18_combout $end
$var wire 1 %! U0|Add0~54_combout $end
$var wire 1 &! U0|Add0~19 $end
$var wire 1 '! U0|Add0~20_combout $end
$var wire 1 (! U0|Add0~55_combout $end
$var wire 1 )! U0|Add0~21 $end
$var wire 1 *! U0|Add0~22_combout $end
$var wire 1 +! U0|Add0~56_combout $end
$var wire 1 ,! U0|Add0~23 $end
$var wire 1 -! U0|Add0~24_combout $end
$var wire 1 .! U0|Add0~57_combout $end
$var wire 1 /! U0|Add0~25 $end
$var wire 1 0! U0|Add0~26_combout $end
$var wire 1 1! U0|Add0~58_combout $end
$var wire 1 2! U0|Add0~27 $end
$var wire 1 3! U0|Add0~28_combout $end
$var wire 1 4! U0|Add0~59_combout $end
$var wire 1 5! U0|Add0~29 $end
$var wire 1 6! U0|Add0~30_combout $end
$var wire 1 7! U0|Add0~60_combout $end
$var wire 1 8! U0|Add0~31 $end
$var wire 1 9! U0|Add0~32_combout $end
$var wire 1 :! U0|Add0~61_combout $end
$var wire 1 ;! U0|Add0~33 $end
$var wire 1 <! U0|Add0~34_combout $end
$var wire 1 =! U0|Add0~36_combout $end
$var wire 1 >! U0|Add0~35 $end
$var wire 1 ?! U0|Add0~37_combout $end
$var wire 1 @! U0|Add0~39_combout $end
$var wire 1 A! U0|Add0~38 $end
$var wire 1 B! U0|Add0~40_combout $end
$var wire 1 C! U0|Add0~42_combout $end
$var wire 1 D! U0|Add0~41 $end
$var wire 1 E! U0|Add0~43_combout $end
$var wire 1 F! U0|Add0~45_combout $end
$var wire 1 G! U0|LessThan0~0_combout $end
$var wire 1 H! U0|LessThan0~1_combout $end
$var wire 1 I! U0|LessThan0~2_combout $end
$var wire 1 J! U0|LessThan0~3_combout $end
$var wire 1 K! U0|LessThan0~4_combout $end
$var wire 1 L! U0|LessThan0~5_combout $end
$var wire 1 M! U0|Add0~44 $end
$var wire 1 N! U0|Add0~62_combout $end
$var wire 1 O! U0|Add0~85_combout $end
$var wire 1 P! U0|Add0~63 $end
$var wire 1 Q! U0|Add0~64_combout $end
$var wire 1 R! U0|Add0~86_combout $end
$var wire 1 S! U0|Add0~65 $end
$var wire 1 T! U0|Add0~66_combout $end
$var wire 1 U! U0|Add0~87_combout $end
$var wire 1 V! U0|Add0~67 $end
$var wire 1 W! U0|Add0~68_combout $end
$var wire 1 X! U0|Add0~88_combout $end
$var wire 1 Y! U0|Add0~69 $end
$var wire 1 Z! U0|Add0~70_combout $end
$var wire 1 [! U0|Add0~89_combout $end
$var wire 1 \! U0|Add0~71 $end
$var wire 1 ]! U0|Add0~72_combout $end
$var wire 1 ^! U0|Add0~90_combout $end
$var wire 1 _! U0|Add0~73 $end
$var wire 1 `! U0|Add0~74_combout $end
$var wire 1 a! U0|Add0~91_combout $end
$var wire 1 b! U0|Add0~75 $end
$var wire 1 c! U0|Add0~76_combout $end
$var wire 1 d! U0|Add0~92_combout $end
$var wire 1 e! U0|Add0~77 $end
$var wire 1 f! U0|Add0~78_combout $end
$var wire 1 g! U0|Add0~93_combout $end
$var wire 1 h! U0|Add0~79 $end
$var wire 1 i! U0|Add0~80_combout $end
$var wire 1 j! U0|Add0~94_combout $end
$var wire 1 k! U0|Add0~81 $end
$var wire 1 l! U0|Add0~82_combout $end
$var wire 1 m! U0|Add0~84_combout $end
$var wire 1 n! U0|LessThan0~6_combout $end
$var wire 1 o! U0|LessThan0~7_combout $end
$var wire 1 p! U0|LessThan0~8_combout $end
$var wire 1 q! U0|LessThan0~9_combout $end
$var wire 1 r! U0|tmp~0_combout $end
$var wire 1 s! U1|Mux0~0_combout $end
$var wire 1 t! U1|Mux7~0_combout $end
$var wire 1 u! U1|Mux1~0_combout $end
$var wire 1 v! U1|Mux2~0_combout $end
$var wire 1 w! U1|Mux3~0_combout $end
$var wire 1 x! U1|Mux4~0_combout $end
$var wire 1 y! U1|Mux5~0_combout $end
$var wire 1 z! U1|Mux6~0_combout $end
$var wire 1 {! U2|Mux0~0_combout $end
$var wire 1 |! U2|Mux7~0_combout $end
$var wire 1 }! U2|Mux1~0_combout $end
$var wire 1 ~! U2|Mux2~0_combout $end
$var wire 1 !" U2|Mux3~0_combout $end
$var wire 1 "" U2|Mux4~0_combout $end
$var wire 1 #" U2|Mux5~0_combout $end
$var wire 1 $" U2|Mux6~0_combout $end
$var wire 1 %" U0|tmpten [3] $end
$var wire 1 &" U0|tmpten [2] $end
$var wire 1 '" U0|tmpten [1] $end
$var wire 1 (" U0|tmpten [0] $end
$var wire 1 )" U0|tmp [3] $end
$var wire 1 *" U0|tmp [2] $end
$var wire 1 +" U0|tmp [1] $end
$var wire 1 ," U0|tmp [0] $end
$var wire 1 -" U0|count [31] $end
$var wire 1 ." U0|count [30] $end
$var wire 1 /" U0|count [29] $end
$var wire 1 0" U0|count [28] $end
$var wire 1 1" U0|count [27] $end
$var wire 1 2" U0|count [26] $end
$var wire 1 3" U0|count [25] $end
$var wire 1 4" U0|count [24] $end
$var wire 1 5" U0|count [23] $end
$var wire 1 6" U0|count [22] $end
$var wire 1 7" U0|count [21] $end
$var wire 1 8" U0|count [20] $end
$var wire 1 9" U0|count [19] $end
$var wire 1 :" U0|count [18] $end
$var wire 1 ;" U0|count [17] $end
$var wire 1 <" U0|count [16] $end
$var wire 1 =" U0|count [15] $end
$var wire 1 >" U0|count [14] $end
$var wire 1 ?" U0|count [13] $end
$var wire 1 @" U0|count [12] $end
$var wire 1 A" U0|count [11] $end
$var wire 1 B" U0|count [10] $end
$var wire 1 C" U0|count [9] $end
$var wire 1 D" U0|count [8] $end
$var wire 1 E" U0|count [7] $end
$var wire 1 F" U0|count [6] $end
$var wire 1 G" U0|count [5] $end
$var wire 1 H" U0|count [4] $end
$var wire 1 I" U0|count [3] $end
$var wire 1 J" U0|count [2] $end
$var wire 1 K" U0|count [1] $end
$var wire 1 L" U0|count [0] $end
$upscope $end
$upscope $end
$enddefinitions $end
#0
$dumpvars
0!
1"
0#
1$
1+
0*
0)
0(
0'
0&
0%
12
01
00
0/
0.
0-
0,
x3
04
15
x6
17
18
19
1:
0;
0<
0=
0>
0?
0@
1A
0B
0C
0D
0E
0F
0G
0H
0I
0J
0K
1L
0M
0N
0O
1P
0Q
1R
0S
1T
0U
0V
0W
0X
0Y
0Z
0[
0\
0]
0^
0_
0`
0a
0b
0c
1d
0e
1f
0g
1h
1i
1j
1k
1l
0m
0n
0o
0p
0q
1r
0s
0t
0u
0v
0w
1x
0y
0z
0{
0|
0}
1~
0!!
0"!
0#!
0$!
0%!
1&!
0'!
0(!
0)!
0*!
0+!
1,!
0-!
0.!
0/!
00!
01!
12!
03!
04!
05!
06!
07!
18!
09!
0:!
0;!
0<!
0=!
1>!
0?!
0@!
0A!
0B!
0C!
1D!
0E!
0F!
0G!
0H!
0I!
0J!
0K!
0L!
0M!
0N!
0O!
1P!
0Q!
0R!
0S!
0T!
0U!
1V!
0W!
0X!
0Y!
0Z!
0[!
1\!
0]!
0^!
0_!
0`!
0a!
1b!
0c!
0d!
0e!
0f!
0g!
1h!
0i!
0j!
0k!
1l!
0m!
0n!
0o!
0p!
1q!
0r!
1s!
1t!
0u!
0v!
0w!
0x!
0y!
0z!
1{!
1|!
0}!
0~!
0!"
0""
0#"
0$"
0("
0'"
0&"
0%"
0,"
0+"
0*"
0)"
0L"
0K"
0J"
0I"
0H"
0G"
0F"
0E"
0D"
0C"
0B"
0A"
0@"
0?"
0>"
0="
0<"
0;"
0:"
09"
08"
07"
06"
05"
04"
03"
02"
01"
00"
0/"
0."
0-"
$end
#2250
1!
1H
03
1K"
1L"
0l
0j
0i
1I
1m
0k
1l
1j
0f
1n
0m
1k
0n
#4500
0!
0H
13
#6750
1!
1H
03
0L"
1i
0I
0l
0j
1f
1m
0k
1n
#9000
0!
0H
13
#11250
1!
1H
03
1J"
0K"
1L"
1o
0m
1l
1j
0i
1I
1p
0n
0o
1m
1k
0j
0f
1q
0p
1n
0k
0q
#13500
0!
0H
13
#15750
1!
1H
03
0L"
1i
0I
1j
1f
1k
#18000
0!
0H
13
#20250
1!
1H
03
1K"
1L"
1H!
0l
0j
0i
1I
1L!
1o
0m
0k
1l
1j
0f
1p
0n
0o
1m
1k
1q
0p
1n
0q
#22500
0!
0H
13
#24750
1!
1H
03
0L"
1i
0I
0l
0j
1f
1o
0m
0k
1p
0n
1q
#27000
0!
0H
13
#29250
1!
1H
03
1I"
0J"
0K"
1L"
0r
0p
0o
1m
1l
1j
0i
1I
1s
0q
1r
1p
1n
0m
1k
0j
0f
1t
0s
1q
0n
0k
0t
#30000
1#
1K
13
1g
1Z
0q
1f
1U
1m!
#31500
0!
0H
03
#33750
1!
1H
13
1-"
0I"
0q!
0l!
0H!
0p
1r!
1_
1N
0L!
1q!
0r!
0_
0N
#36000
0!
0H
03
#38250
1!
1H
13
#40500
0!
0H
03
#42750
1!
1H
13
#45000
0!
0H
03
#47250
1!
1H
13
#49500
0!
0H
03
#51750
1!
1H
13
#54000
0!
0H
03
#56250
1!
1H
13
#58500
0!
0H
03
#60000
0#
0K
13
0g
0Z
0h
0f
0U
1h
#60500
1#
1K
03
1g
1Z
1f
1U
#60750
1!
1H
13
#61000
0#
0K
03
0g
0Z
0h
0f
0U
1h
#61500
1#
1K
13
1g
1Z
1f
1U
#62000
0#
0K
03
0g
0Z
0h
0f
0U
1h
#62500
1#
1K
13
1g
1Z
1f
1U
#63000
0!
0#
0H
0K
03
0g
0Z
0h
0f
0U
1h
#63500
1#
1K
13
1g
1Z
1f
1U
#64000
0#
0K
03
0g
0Z
0h
0f
0U
1h
#64500
1#
1K
13
1g
1Z
1f
1U
#65000
0#
0K
03
0g
0Z
0h
0f
0U
1h
#65250
1!
1H
13
0L"
1i
0I
1j
1f
1k
#65500
1#
1K
03
1g
1Z
0k
1U
#66000
0#
0K
13
0g
0Z
0h
1k
0U
1h
#66500
1#
1K
03
1g
1Z
0k
1U
#67000
0#
0K
13
0g
0Z
0h
1k
0U
1h
#67500
0!
1#
0H
1K
03
1g
1Z
0k
1U
#68000
0#
0K
13
0g
0Z
0h
1k
0U
1h
#68500
1#
1K
03
1g
1Z
0k
1U
#69000
0#
0K
13
0g
0Z
0h
1k
0U
1h
#69500
1#
1K
03
1g
1Z
0k
1U
#69750
1!
1H
13
1L"
0i
1I
0j
#70000
0#
0K
03
0g
0Z
0h
0f
0U
1h
#72000
0!
0H
13
#74250
1!
1H
03
0L"
1i
0I
1j
1f
1k
#76500
0!
0H
13
#78750
1!
1H
03
1K"
1L"
0l
0j
0i
1I
1m
0k
1l
1j
0f
1n
0m
1k
0n
#81000
0!
0H
13
#83250
1!
1H
03
0L"
1i
0I
0l
0j
1f
1m
0k
1n
#85500
0!
0H
13
#87750
1!
1H
03
1J"
0K"
1L"
1o
0m
1l
1j
0i
1I
1p
0n
0o
1m
1k
0j
0f
1q
0p
1n
0k
0q
#90000
1#
0!
1K
0H
13
1g
1Z
0n
1f
1U
#92250
1!
1H
03
0J"
0m
#94500
0!
0H
13
#96750
1!
1H
03
#99000
0!
0H
13
#101250
1!
1H
03
#103500
0!
0H
13
#105750
1!
1H
03
#108000
0!
0H
13
#110250
1!
1H
03
#112500
0!
0H
13
#114750
1!
1H
03
#117000
0!
0H
13
#119250
1!
1H
03
#120000
0#
0K
13
0g
0Z
0h
0f
0U
1h
#121500
0!
0H
03
#123750
1!
1H
13
0L"
1i
0I
1j
1f
1k
#126000
0!
0H
03
#128250
1!
1H
13
1K"
1L"
0l
0j
0i
1I
1m
0k
1l
1j
0f
1n
0m
1k
0n
#130500
1#
0!
1K
0H
03
1g
1Z
0k
1f
1U
#131000
0#
0K
13
0g
0Z
0h
1k
0f
0U
1h
#131500
1#
1K
03
1g
1Z
0k
1f
1U
#132000
0#
0K
13
0g
0Z
0h
1k
0f
0U
1h
#132500
1#
1K
03
1g
1Z
0k
1f
1U
#132750
1!
1H
13
0K"
0j
#133000
0#
0K
03
0g
0Z
0h
0f
0U
1h
#133500
1#
1K
13
1g
1Z
1f
1U
#134000
0#
0K
03
0g
0Z
0h
0f
0U
1h
#134500
1#
1K
13
1g
1Z
1f
1U
#135000
0!
0#
0H
0K
03
0g
0Z
0h
0f
0U
1h
#135500
1#
1K
13
1g
1Z
1f
1U
#136000
0#
0K
03
0g
0Z
0h
0f
0U
1h
#136500
1#
1K
13
1g
1Z
1f
1U
#137000
0#
0K
03
0g
0Z
0h
0f
0U
1h
#137250
1!
1H
13
0L"
1i
0I
1j
1f
1k
#137500
1#
1K
03
1g
1Z
0k
1U
#138000
0#
0K
13
0g
0Z
0h
1k
0U
1h
#138500
1#
1K
03
1g
1Z
0k
1U
#139000
0#
0K
13
0g
0Z
0h
1k
0U
1h
#139500
0!
1#
0H
1K
03
1g
1Z
0k
1U
#140000
0#
0K
13
0g
0Z
0h
1k
0U
1h
#141750
1!
1H
03
1K"
1L"
0l
0j
0i
1I
1m
0k
1l
1j
0f
1n
0m
1k
0n
#144000
0!
0H
13
#146250
1!
1H
03
0L"
1i
0I
0l
0j
1f
1m
0k
1n
#148500
0!
0H
13
#150000
1#
1K
03
1g
1Z
0n
1U
#150750
1!
1H
13
0K"
1L"
1l
1j
0i
1I
0m
0j
#153000
0!
0H
03
#155250
1!
1H
13
#157500
0!
0H
03
#159750
1!
1H
13
#162000
0!
0H
03
#164250
1!
1H
13
#166500
0!
0H
03
#168750
1!
1H
13
#171000
0!
0H
03
#173250
1!
1H
13
#175500
0!
0H
03
#177750
1!
1H
13
#180000
0#
0!
0K
0H
03
0g
0Z
0h
0f
0U
1h
#182250
1!
1H
13
0L"
1i
0I
1j
1f
1k
#184500
0!
0H
03
#186750
1!
1H
13
1K"
1L"
0l
0j
0i
1I
1m
0k
1l
1j
0f
1n
0m
1k
0n
#189000
0!
0H
03
#191250
1!
1H
13
0L"
1i
0I
0l
0j
1f
1m
0k
1n
#193500
0!
0H
03
#195750
1!
1H
13
1J"
0K"
1L"
1o
0m
1l
1j
0i
1I
1p
0n
0o
1m
1k
0j
0f
1q
0p
1n
0k
0q
#198000
0!
0H
03
#200250
1!
1H
13
0L"
1i
0I
1j
1f
1k
#202500
0!
0H
03
#204750
1!
1H
13
1K"
1L"
1H!
0l
0j
0i
1I
1L!
1o
0m
0k
1l
1j
0f
0q!
1p
0n
0o
1m
1k
1q
0p
1n
0q
#207000
0!
0H
03
#209250
1!
1H
13
0L"
1i
0I
0l
0j
1f
1o
0m
0k
1p
0n
1q
#210000
1#
1K
03
1g
1Z
0q
1U
1N
1r!
1_
#211500
0!
0H
13
#213750
1!
1H
03
1,"
0J"
0K"
1L"
0r!
0d
1J
0H!
0o
1m
1l
1j
0i
1I
1z!
1w!
1v!
1u!
1c
0L!
0p
0m
0j
1@
1=
1<
1;
1%
1(
1)
1*
1q!
1r!
0_
0N
#216000
0!
0H
13
#218250
1!
1H
03
#220500
0!
0H
13
#222750
1!
1H
03
#225000
0!
0H
13
#227250
1!
1H
03
#229500
0!
0H
13
#231750
1!
1H
03
#234000
0!
0H
13
#236250
1!
1H
03
#238500
0!
0H
13
#240000
0#
0K
03
0g
0Z
0h
0f
0U
1h
#240500
1#
1K
13
1g
1Z
1f
1U
#240750
1!
1H
03
#241000
0#
0K
13
0g
0Z
0h
0f
0U
1h
#241500
1#
1K
03
1g
1Z
1f
1U
#242000
0#
0K
13
0g
0Z
0h
0f
0U
1h
#242500
1#
1K
03
1g
1Z
1f
1U
#243000
0!
0#
0H
0K
13
0g
0Z
0h
0f
0U
1h
#243500
1#
1K
03
1g
1Z
1f
1U
#244000
0#
0K
13
0g
0Z
0h
0f
0U
1h
#244500
1#
1K
03
1g
1Z
1f
1U
#245000
0#
0K
13
0g
0Z
0h
0f
0U
1h
#245250
1!
1H
03
0L"
1i
0I
1j
1f
1k
#245500
1#
1K
13
1g
1Z
0k
1U
#246000
0#
0K
03
0g
0Z
0h
1k
0U
1h
#246500
1#
1K
13
1g
1Z
0k
1U
#247000
0#
0K
03
0g
0Z
0h
1k
0U
1h
#247500
0!
1#
0H
1K
13
1g
1Z
0k
1U
#248000
0#
0K
03
0g
0Z
0h
1k
0U
1h
#248500
1#
1K
13
1g
1Z
0k
1U
#249000
0#
0K
03
0g
0Z
0h
1k
0U
1h
#249500
1#
1K
13
1g
1Z
0k
1U
#249750
1!
1H
03
1L"
0i
1I
0j
#250000
0#
0K
13
0g
0Z
0h
0f
0U
1h
#252000
0!
0H
03
#254250
1!
1H
13
0L"
1i
0I
1j
1f
1k
#256500
0!
0H
03
#258750
1!
1H
13
1K"
1L"
0l
0j
0i
1I
1m
0k
1l
1j
0f
1n
0m
1k
0n
#261000
0!
0H
03
#263250
1!
1H
13
0L"
1i
0I
0l
0j
1f
1m
0k
1n
#265500
0!
0H
03
#267750
1!
1H
13
1J"
0K"
1L"
1o
0m
1l
1j
0i
1I
1p
0n
0o
1m
1k
0j
0f
1q
0p
1n
0k
0q
#270000
1#
0!
1K
0H
03
1g
1Z
0n
1f
1U
#272250
1!
1H
13
0J"
0m
#274500
0!
0H
03
#276750
1!
1H
13
#279000
0!
0H
03
#281250
1!
1H
13
#283500
0!
0H
03
#285750
1!
1H
13
#288000
0!
0H
03
#290250
1!
1H
13
#292500
0!
0H
03
#294750
1!
1H
13
#297000
0!
0H
03
#299250
1!
1H
13
#300000
0#
0K
03
0g
0Z
0h
0f
0U
1h
#301500
0!
0H
13
#303750
1!
1H
03
0L"
1i
0I
1j
1f
1k
#306000
0!
0H
13
#308250
1!
1H
03
1K"
1L"
0l
0j
0i
1I
1m
0k
1l
1j
0f
1n
0m
1k
0n
#310500
0!
0H
13
#312750
1!
1H
03
0L"
1i
0I
0l
0j
1f
1m
0k
1n
#315000
0!
0H
13
#317250
1!
1H
03
1J"
0K"
1L"
1o
0m
1l
1j
0i
1I
1p
0n
0o
1m
1k
0j
0f
1q
0p
1n
0k
0q
#319500
0!
0H
13
#321750
1!
1H
03
0L"
1i
0I
1j
1f
1k
#324000
0!
0H
13
#326250
1!
1H
03
1K"
1L"
1H!
0l
0j
0i
1I
1L!
1o
0m
0k
1l
1j
0f
0q!
1p
0n
0o
1m
1k
1q
0p
1n
0q
#328500
0!
0H
13
#330000
1#
1K
03
1g
1Z
0n
0k
1f
1U
1N
0r!
1_
#330750
1!
1H
13
0,"
0J"
0K"
1+"
1r!
0H!
0m
0j
0z!
1x!
0w!
0v!
0s!
0L!
0@
1>
0=
0<
0:
0%
1'
0(
0)
0+
1q!
0r!
0_
0N
#333000
0!
0H
03
#335250
1!
1H
13
#337500
0!
0H
03
#339750
1!
1H
13
#342000
0!
0H
03
#344250
1!
1H
13
#346500
0!
0H
03
#348750
1!
1H
13
#351000
0!
0H
03
#353250
1!
1H
13
#355500
0!
0H
03
#357750
1!
1H
13
#360000
0#
0!
0K
0H
03
0g
0Z
0h
0f
0U
1h
#362250
1!
1H
13
0L"
1i
0I
1j
1f
1k
#364500
0!
0H
03
#366750
1!
1H
13
1K"
1L"
0l
0j
0i
1I
1m
0k
1l
1j
0f
1n
0m
1k
0n
#369000
0!
0H
03
#371250
1!
1H
13
0L"
1i
0I
0l
0j
1f
1m
0k
1n
#373500
0!
0H
03
#375750
1!
1H
13
1J"
0K"
1L"
1o
0m
1l
1j
0i
1I
1p
0n
0o
1m
1k
0j
0f
1q
0p
1n
0k
0q
#378000
0!
0H
03
#380250
1!
1H
13
0L"
1i
0I
1j
1f
1k
#382500
0!
0H
03
#384750
1!
1H
13
1K"
1L"
1H!
0l
0j
0i
1I
1L!
1o
0m
0k
1l
1j
0f
0q!
1p
0n
0o
1m
1k
1q
0p
1n
0q
#387000
0!
0H
03
#389250
1!
1H
13
0L"
1i
0I
0l
0j
1f
1o
0m
0k
1p
0n
1q
#390000
1#
1K
03
1g
1Z
0q
1U
1N
1r!
1_
#391500
0!
0H
13
#393750
1!
1H
03
1,"
0J"
0K"
1L"
0r!
1]
0J
0H!
0o
1m
1l
1j
0i
1I
0x!
1v!
1^
0c
0L!
0p
0m
0j
0>
1<
0'
1)
1q!
1r!
0_
0N
#396000
0!
0H
13
#398250
1!
1H
03
#400500
0!
0H
13
#402750
1!
1H
03
#405000
0!
0H
13
#407250
1!
1H
03
#409500
0!
0H
13
#411750
1!
1H
03
#414000
0!
0H
13
#416250
1!
1H
03
#418500
0!
0H
13
#420000
0#
0K
03
0g
0Z
0h
0f
0U
1h
#420500
1#
1K
13
1g
1Z
1f
1U
#420750
1!
1H
03
#421000
0#
0K
13
0g
0Z
0h
0f
0U
1h
#421500
1#
1K
03
1g
1Z
1f
1U
#422000
0#
0K
13
0g
0Z
0h
0f
0U
1h
#422500
1#
1K
03
1g
1Z
1f
1U
#423000
0!
0#
0H
0K
13
0g
0Z
0h
0f
0U
1h
#423500
1#
1K
03
1g
1Z
1f
1U
#424000
0#
0K
13
0g
0Z
0h
0f
0U
1h
#424500
1#
1K
03
1g
1Z
1f
1U
#425000
0#
0K
13
0g
0Z
0h
0f
0U
1h
#425250
1!
1H
03
0L"
1i
0I
1j
1f
1k
#425500
1#
1K
13
1g
1Z
0k
1U
#426000
0#
0K
03
0g
0Z
0h
1k
0U
1h
#426500
1#
1K
13
1g
1Z
0k
1U
#427000
0#
0K
03
0g
0Z
0h
1k
0U
1h
#427500
0!
1#
0H
1K
13
1g
1Z
0k
1U
#428000
0#
0K
03
0g
0Z
0h
1k
0U
1h
#428500
1#
1K
13
1g
1Z
0k
1U
#429000
0#
0K
03
0g
0Z
0h
1k
0U
1h
#429500
1#
1K
13
1g
1Z
0k
1U
#429750
1!
1H
03
1L"
0i
1I
0j
#430000
0#
0K
13
0g
0Z
0h
0f
0U
1h
#432000
0!
0H
03
#434250
1!
1H
13
0L"
1i
0I
1j
1f
1k
#436500
0!
0H
03
#438750
1!
1H
13
1K"
1L"
0l
0j
0i
1I
1m
0k
1l
1j
0f
1n
0m
1k
0n
#441000
0!
0H
03
#443250
1!
1H
13
0L"
1i
0I
0l
0j
1f
1m
0k
1n
#445500
0!
0H
03
#447750
1!
1H
13
1J"
0K"
1L"
1o
0m
1l
1j
0i
1I
1p
0n
0o
1m
1k
0j
0f
1q
0p
1n
0k
0q
#450000
1#
0!
1K
0H
03
1g
1Z
0n
1f
1U
#452250
1!
1H
13
0J"
0m
#454500
0!
0H
03
#456750
1!
1H
13
#459000
0!
0H
03
#461250
1!
1H
13
#463500
0!
0H
03
#465750
1!
1H
13
#468000
0!
0H
03
#470250
1!
1H
13
#472500
0!
0H
03
#474750
1!
1H
13
#477000
0!
0H
03
#479250
1!
1H
13
#480000
0#
0K
03
0g
0Z
0h
0f
0U
1h
#481500
0!
0H
13
#483750
1!
1H
03
0L"
1i
0I
1j
1f
1k
#486000
0!
0H
13
#488250
1!
1H
03
1K"
1L"
0l
0j
0i
1I
1m
0k
1l
1j
0f
1n
0m
1k
0n
#490500
0!
0H
13
#492750
1!
1H
03
0L"
1i
0I
0l
0j
1f
1m
0k
1n
#495000
0!
0H
13
#497250
1!
1H
03
1J"
0K"
1L"
1o
0m
1l
1j
0i
1I
1p
0n
0o
1m
1k
0j
0f
1q
0p
1n
0k
0q
#499500
0!
0H
13
#501750
1!
1H
03
0L"
1i
0I
1j
1f
1k
#504000
0!
0H
13
#506250
1!
1H
03
1K"
1L"
1H!
0l
0j
0i
1I
1L!
1o
0m
0k
1l
1j
0f
0q!
1p
0n
0o
1m
1k
1q
0p
1n
0q
#508500
0!
0H
13
#510000
1#
1K
03
1g
1Z
0n
0k
1f
1U
1N
0r!
1_
#510750
1!
1H
13
0,"
0J"
0K"
0+"
1*"
1r!
0]
0H!
0m
0j
0^
1z!
1w!
0u!
1^
0L!
1@
1=
0;
1%
1(
0*
1q!
0r!
0_
0N
#513000
0!
0H
03
#515250
1!
1H
13
#517500
0!
0H
03
#519750
1!
1H
13
#522000
0!
0H
03
#524250
1!
1H
13
#526500
0!
0H
03
#528750
1!
1H
13
#531000
0!
0H
03
#533250
1!
1H
13
#535500
0!
0H
03
#537750
1!
1H
13
#540000
0#
0!
0K
0H
03
0g
0Z
0h
0f
0U
1h
#542250
1!
1H
13
0L"
1i
0I
1j
1f
1k
#544500
0!
0H
03
#546750
1!
1H
13
1K"
1L"
0l
0j
0i
1I
1m
0k
1l
1j
0f
1n
0m
1k
0n
#549000
0!
0H
03
#551250
1!
1H
13
0L"
1i
0I
0l
0j
1f
1m
0k
1n
#553500
0!
0H
03
#555750
1!
1H
13
1J"
0K"
1L"
1o
0m
1l
1j
0i
1I
1p
0n
0o
1m
1k
0j
0f
1q
0p
1n
0k
0q
#558000
0!
0H
03
#560250
1!
1H
13
0L"
1i
0I
1j
1f
1k
#562500
0!
0H
03
#564750
1!
1H
13
1K"
1L"
1H!
0l
0j
0i
1I
1L!
1o
0m
0k
1l
1j
0f
0q!
1p
0n
0o
1m
1k
1q
0p
1n
0q
#567000
0!
0H
03
#569250
1!
1H
13
0L"
1i
0I
0l
0j
1f
1o
0m
0k
1p
0n
1q
#570000
1#
1K
03
1g
1Z
0q
1U
1N
1r!
1_
#571500
0!
0H
13
#573750
1!
1H
03
1,"
0J"
0K"
1L"
0r!
1J
0H!
0o
1m
1l
1j
0i
1I
0z!
1y!
0w!
1c
0L!
0p
0m
0j
0@
1?
0=
0%
1&
0(
1q!
1r!
0_
0N
#576000
0!
0H
13
#578250
1!
1H
03
#580500
0!
0H
13
#582750
1!
1H
03
#585000
0!
0H
13
#587250
1!
1H
03
#589500
0!
0H
13
#591750
1!
1H
03
#594000
0!
0H
13
#596250
1!
1H
03
#598500
0!
0H
13
#600000
0#
0K
03
0g
0Z
0h
0f
0U
1h
#600750
1!
1H
13
0L"
1i
0I
1j
1f
1k
#603000
0!
0H
03
#605250
1!
1H
13
1K"
1L"
0l
0j
0i
1I
1m
0k
1l
1j
0f
1n
0m
1k
0n
#607500
0!
0H
03
#609750
1!
1H
13
0L"
1i
0I
0l
0j
1f
1m
0k
1n
#612000
0!
0H
03
#614250
1!
1H
13
1J"
0K"
1L"
1o
0m
1l
1j
0i
1I
1p
0n
0o
1m
1k
0j
0f
1q
0p
1n
0k
0q
#616500
0!
0H
03
#618750
1!
1H
13
0L"
1i
0I
1j
1f
1k
#621000
0!
0H
03
#623250
1!
1H
13
1K"
1L"
1H!
0l
0j
0i
1I
1L!
1o
0m
0k
1l
1j
0f
0q!
1p
0n
0o
1m
1k
1q
0p
1n
0q
#625500
0!
0H
03
#627750
1!
1H
13
0L"
1i
0I
0l
0j
1f
1o
0m
0k
1p
0n
1q
#630000
1#
0!
1K
0H
03
1g
1Z
0q
1U
1N
0r!
1_
#632250
1!
1H
13
0,"
0J"
0K"
1L"
1+"
1r!
0H!
0o
1m
1l
1j
0i
1I
0v!
0L!
0p
0m
0j
0<
0)
1q!
0r!
0_
0N
#634500
0!
0H
03
#636750
1!
1H
13
#639000
0!
0H
03
#641250
1!
1H
13
#643500
0!
0H
03
#645750
1!
1H
13
#648000
0!
0H
03
#650250
1!
1H
13
#652500
0!
0H
03
#654750
1!
1H
13
#657000
0!
0H
03
#659250
1!
1H
13
#660000
0#
0K
03
0g
0Z
0h
0f
0U
1h
#661500
0!
0H
13
#663750
1!
1H
03
0L"
1i
0I
1j
1f
1k
#666000
0!
0H
13
#668250
1!
1H
03
1K"
1L"
0l
0j
0i
1I
1m
0k
1l
1j
0f
1n
0m
1k
0n
#670500
0!
0H
13
#672750
1!
1H
03
0L"
1i
0I
0l
0j
1f
1m
0k
1n
#675000
0!
0H
13
#677250
1!
1H
03
1J"
0K"
1L"
1o
0m
1l
1j
0i
1I
1p
0n
0o
1m
1k
0j
0f
1q
0p
1n
0k
0q
#679500
0!
0H
13
#681750
1!
1H
03
0L"
1i
0I
1j
1f
1k
#684000
0!
0H
13
#686250
1!
1H
03
1K"
1L"
1H!
0l
0j
0i
1I
1L!
1o
0m
0k
1l
1j
0f
0q!
1p
0n
0o
1m
1k
1q
0p
1n
0q
#688500
0!
0H
13
#690000
1#
1K
03
1g
1Z
0n
0k
1f
1U
1N
1r!
1_
#690750
1!
1H
13
1,"
0J"
0K"
0r!
1`
1]
0J
0H!
0m
0j
0y!
1w!
1v!
1u!
1s!
1a
0^
0c
0L!
0?
1=
1<
1;
1:
0&
1(
1)
1*
1+
1q!
1r!
0_
0N
#693000
0!
0H
03
#695250
1!
1H
13
#697500
0!
0H
03
#699750
1!
1H
13
#702000
0!
0H
03
#704250
1!
1H
13
#706500
0!
0H
03
#708750
1!
1H
13
#711000
0!
0H
03
#713250
1!
1H
13
#715500
0!
0H
03
#717750
1!
1H
13
#720000
0#
0!
0K
0H
03
0g
0Z
0h
0f
0U
1h
#722250
1!
1H
13
0L"
1i
0I
1j
1f
1k
#724500
0!
0H
03
#726750
1!
1H
13
1K"
1L"
0l
0j
0i
1I
1m
0k
1l
1j
0f
1n
0m
1k
0n
#729000
0!
0H
03
#731250
1!
1H
13
0L"
1i
0I
0l
0j
1f
1m
0k
1n
#733500
0!
0H
03
#735750
1!
1H
13
1J"
0K"
1L"
1o
0m
1l
1j
0i
1I
1p
0n
0o
1m
1k
0j
0f
1q
0p
1n
0k
0q
#738000
0!
0H
03
#740250
1!
1H
13
0L"
1i
0I
1j
1f
1k
#742500
0!
0H
03
#744750
1!
1H
13
1K"
1L"
1H!
0l
0j
0i
1I
1L!
1o
0m
0k
1l
1j
0f
0q!
1p
0n
0o
1m
1k
1q
0p
1n
0q
#747000
0!
0H
03
#749250
1!
1H
13
0L"
1i
0I
0l
0j
1f
1o
0m
0k
1p
0n
1q
#750000
1#
1K
03
1g
1Z
0q
1U
1N
0r!
1_
#751500
0!
0H
13
#753750
1!
1H
03
0,"
0J"
0K"
1L"
0+"
1)"
0*"
1r!
0`
0]
0H!
0o
1m
1l
1j
0i
1I
0a
1^
0w!
0v!
0u!
0s!
1a
0^
0L!
0p
0m
0j
0=
0<
0;
0:
0(
0)
0*
0+
1q!
0r!
0_
0N
#756000
0!
0H
13
#758250
1!
1H
03
#760500
0!
0H
13
#762750
1!
1H
03
#765000
0!
0H
13
#767250
1!
1H
03
#769500
0!
0H
13
#771750
1!
1H
03
#774000
0!
0H
13
#776250
1!
1H
03
#778500
0!
0H
13
#780000
0#
0K
03
0g
0Z
0h
0f
0U
1h
#780750
1!
1H
13
0L"
1i
0I
1j
1f
1k
#783000
0!
0H
03
#785250
1!
1H
13
1K"
1L"
0l
0j
0i
1I
1m
0k
1l
1j
0f
1n
0m
1k
0n
#787500
0!
0H
03
#789750
1!
1H
13
0L"
1i
0I
0l
0j
1f
1m
0k
1n
#792000
0!
0H
03
#794250
1!
1H
13
1J"
0K"
1L"
1o
0m
1l
1j
0i
1I
1p
0n
0o
1m
1k
0j
0f
1q
0p
1n
0k
0q
#796500
0!
0H
03
#798750
1!
1H
13
0L"
1i
0I
1j
1f
1k
#801000
0!
0H
03
#803250
1!
1H
13
1K"
1L"
1H!
0l
0j
0i
1I
1L!
1o
0m
0k
1l
1j
0f
0q!
1p
0n
0o
1m
1k
1q
0p
1n
0q
#805500
0!
0H
03
#807750
1!
1H
13
0L"
1i
0I
0l
0j
1f
1o
0m
0k
1p
0n
1q
#810000
1#
0!
1K
0H
03
1g
1Z
0q
1U
1N
1r!
1_
#812250
1!
1H
13
1,"
0J"
0K"
1L"
0r!
1b
1J
0H!
0o
1m
1l
1j
0i
1I
1v!
0a
1M
0L
0L!
0p
0m
0j
1<
1)
1V
1O
1q!
1r!
0_
0V
0N
0O
#814500
0!
0H
03
#816750
1!
1H
13
#819000
0!
0H
03
#821250
1!
1H
13
#823500
0!
0H
03
#825750
1!
1H
13
#828000
0!
0H
03
#830250
1!
1H
13
#832500
0!
0H
03
#834750
1!
1H
13
#837000
0!
0H
03
#839250
1!
1H
13
#840000
0#
0K
03
0g
0Z
0h
0f
0U
1h
#841500
0!
0H
13
#843750
1!
1H
03
0L"
1i
0I
1j
1f
1k
#846000
0!
0H
13
#848250
1!
1H
03
1K"
1L"
0l
0j
0i
1I
1m
0k
1l
1j
0f
1n
0m
1k
0n
#850500
0!
0H
13
#852750
1!
1H
03
0L"
1i
0I
0l
0j
1f
1m
0k
1n
#855000
0!
0H
13
#857250
1!
1H
03
1J"
0K"
1L"
1o
0m
1l
1j
0i
1I
1p
0n
0o
1m
1k
0j
0f
1q
0p
1n
0k
0q
#859500
0!
0H
13
#861750
1!
1H
03
0L"
1i
0I
1j
1f
1k
#864000
0!
0H
13
#866250
1!
1H
03
1K"
1L"
1H!
0l
0j
0i
1I
1L!
1o
0m
0k
1l
1j
0f
0q!
1p
0n
0o
1m
1k
1q
0p
1n
0q
#868500
0!
0H
13
#870000
1#
1K
03
1g
1Z
0n
0k
1f
1U
1N
0r!
1_
1V
1O
#870750
1!
1H
13
0,"
0J"
0K"
0)"
1("
1r!
1d
0b
0J
0H!
0m
0j
0T
1Q
0O
0v!
1s!
1$"
1!"
1~!
1}!
0M
1L
0L!
0<
1:
1G
1D
1C
1B
0)
1+
1,
1/
10
11
0V
1O
1q!
0r!
0_
0N
#873000
0!
0H
03
#875250
1!
1H
13
#877500
0!
0H
03
#879750
1!
1H
13
#882000
0!
0H
03
#884250
1!
1H
13
#886500
0!
0H
03
#888750
1!
1H
13
#891000
0!
0H
03
#893250
1!
1H
13
#895500
0!
0H
03
#897750
1!
1H
13
#900000
0#
0!
0K
0H
03
0g
0Z
0h
0f
0U
1h
#902250
1!
1H
13
0L"
1i
0I
1j
1f
1k
#904500
0!
0H
03
#906750
1!
1H
13
1K"
1L"
0l
0j
0i
1I
1m
0k
1l
1j
0f
1n
0m
1k
0n
#909000
0!
0H
03
#911250
1!
1H
13
0L"
1i
0I
0l
0j
1f
1m
0k
1n
#913500
0!
0H
03
#915750
1!
1H
13
1J"
0K"
1L"
1o
0m
1l
1j
0i
1I
1p
0n
0o
1m
1k
0j
0f
1q
0p
1n
0k
0q
#918000
0!
0H
03
#920250
1!
1H
13
0L"
1i
0I
1j
1f
1k
#922500
0!
0H
03
#924750
1!
1H
13
1K"
1L"
1H!
0l
0j
0i
1I
1L!
1o
0m
0k
1l
1j
0f
0q!
1p
0n
0o
1m
1k
1q
0p
1n
0q
#927000
0!
0H
03
#929250
1!
1H
13
0L"
1i
0I
0l
0j
1f
1o
0m
0k
1p
0n
1q
#930000
1#
1K
03
1g
1Z
0q
1U
1N
1r!
1_
#931500
0!
0H
13
#933750
1!
1H
03
1,"
0J"
0K"
1L"
0r!
0d
1J
0H!
0o
1m
1l
1j
0i
1I
1z!
1w!
1v!
1u!
1c
0L!
0p
0m
0j
1@
1=
1<
1;
1%
1(
1)
1*
1q!
1r!
0_
0N
#936000
0!
0H
13
#938250
1!
1H
03
#940500
0!
0H
13
#942750
1!
1H
03
#945000
0!
0H
13
#947250
1!
1H
03
#949500
0!
0H
13
#951750
1!
1H
03
#954000
0!
0H
13
#956250
1!
1H
03
#958500
0!
0H
13
#960000
0#
0K
03
0g
0Z
0h
0f
0U
1h
#960750
1!
1H
13
0L"
1i
0I
1j
1f
1k
#963000
0!
0H
03
#965250
1!
1H
13
1K"
1L"
0l
0j
0i
1I
1m
0k
1l
1j
0f
1n
0m
1k
0n
#967500
0!
0H
03
#969750
1!
1H
13
0L"
1i
0I
0l
0j
1f
1m
0k
1n
#972000
0!
0H
03
#974250
1!
1H
13
1J"
0K"
1L"
1o
0m
1l
1j
0i
1I
1p
0n
0o
1m
1k
0j
0f
1q
0p
1n
0k
0q
#976500
0!
0H
03
#978750
1!
1H
13
0L"
1i
0I
1j
1f
1k
#981000
0!
0H
03
#983250
1!
1H
13
1K"
1L"
1H!
0l
0j
0i
1I
1L!
1o
0m
0k
1l
1j
0f
0q!
1p
0n
0o
1m
1k
1q
0p
1n
0q
#985500
0!
0H
03
#987750
1!
1H
13
0L"
1i
0I
0l
0j
1f
1o
0m
0k
1p
0n
1q
#990000
1#
0!
1K
0H
03
1g
1Z
0q
1U
1N
0r!
1_
#992250
1!
1H
13
0,"
0J"
0K"
1L"
1+"
1r!
0H!
0o
1m
1l
1j
0i
1I
0z!
1x!
0w!
0v!
0s!
0L!
0p
0m
0j
0@
1>
0=
0<
0:
0%
1'
0(
0)
0+
1q!
0r!
0_
0N
#994500
0!
0H
03
#996750
1!
1H
13
#999000
0!
0H
03
#1000000
